NodeID	fisher	module_number	modulo_size	fish_caught	biomass_percapita	mean_fish_length	strategy
1	fisher1	1	10	1	0.1	49	coopera
1	fisher1	1	10	51	5.1	43.7	coopera
1	fisher1	1	10	1	0.1	35	coopera
1	fisher1	1	10	1	0.1	37	coopera
1	fisher1	1	10	1	0.1	44	coopera
1	fisher1	1	10	1	0.1	41	coopera
1	fisher1	1	10	1	0.1	36	coopera
1	fisher1	1	10	1	0.1	37	coopera
1	fisher1	1	10	2	0.2	37	coopera
1	fisher1	1	10	1	0.1	51	coopera
1	fisher1	1	10	2	0.2	40.5	coopera
1	fisher1	1	10	7	1	42.71429	coopera
1	fisher1	1	10	5	0.5	41	coopera
1	fisher1	1	10	13	1.3	42.8	coopera
1	fisher1	1	10	2	0.2	41	coopera
1	fisher1	1	10	1	0.1	39	coopera
1	fisher1	1	10	1	0.1	55	coopera
1	fisher1	1	10	1	0.1	35	coopera
1	fisher1	1	10	1	0.1	80	coopera
1	fisher1	1	10	10	1	40.2	coopera
1	fisher1	1	10	2	0.2	37	coopera
1	fisher1	1	10	1	0.1	45	coopera
1	fisher1	1	10	11	1.1	43.4	coopera
1	fisher1	1	10	4	0.4	42.25	coopera
1	fisher1	1	10	15	1.5	39.3	coopera
7	fisher7	2	3	1	0.3333333	55	coopera
7	fisher7	2	3	7	2	45.28571	coopera
10	fisher10	1	10	4	0.4	41.75	coopera
10	fisher10	1	10	3	0	42.33333	coopera
10	fisher10	1	10	6	1	38.33333	coopera
10	fisher10	1	10	1	0.1	52	coopera
11	fisher11	1	10	4	0.4	43.75	coopera
11	fisher11	1	10	6	1	42.16667	coopera
12	fisher12	1	10	9	1	41.11111	coopera
12	fisher12	1	10	1	0.1	44	coopera
12	fisher12	1	10	1	0.1	44	coopera
12	fisher12	1	10	1	0.1	40	coopera
12	fisher12	1	10	1	0.1	41	coopera
12	fisher12	1	10	1	0.1	39	coopera
12	fisher12	1	10	1	0.1	43	coopera
12	fisher12	1	10	1	0.1	40	coopera
12	fisher12	1	10	1	0.1	32	coopera
12	fisher12	1	10	2	0.2	39.5	coopera
12	fisher12	1	10	1	0.1	34	coopera
12	fisher12	1	10	2	0.2	38.5	coopera
12	fisher12	1	10	1	0.1	47	coopera
12	fisher12	1	10	1	0.1	36	coopera
12	fisher12	1	10	10	1	41	coopera
12	fisher12	1	10	9	0.9	40.77778	coopera
12	fisher12	1	10	6	0.6	51.8	coopera
12	fisher12	1	10	11	1.1	50.4	coopera
13	fisher13	1	10	4	0.4	41	coopera
13	fisher13	1	10	55	5.5	45.5	coopera
13	fisher13	1	10	1	0.1	38	coopera
13	fisher13	1	10	1	0.1	39	coopera
13	fisher13	1	10	1	0.1	55	coopera
13	fisher13	1	10	1	0.1	41	coopera
13	fisher13	1	10	1	0.1	41	coopera
13	fisher13	1	10	1	0.1	39	coopera
13	fisher13	1	10	25	2.5	41.4	coopera
13	fisher13	1	10	1	0.1	36	coopera
13	fisher13	1	10	1	0.1	49	coopera
13	fisher13	1	10	2	0.2	54	coopera
14	fisher14	1	10	7	0.7	39	coopera
14	fisher14	1	10	28	2.8	45.2	coopera
14	fisher14	1	10	1	0.1	35	coopera
14	fisher14	1	10	1	0.1	38	coopera
14	fisher14	1	10	1	0.1	NA	coopera
14	fisher14	1	10	1	0.1	51	coopera
14	fisher14	1	10	2	0.2	44	coopera
14	fisher14	1	10	1	0.1	32	coopera
14	fisher14	1	10	1	0.1	47	coopera
14	fisher14	1	10	2	0.2	38.5	coopera
14	fisher14	1	10	6	0.6	45	coopera
14	fisher14	1	10	2	0.2	34	coopera
14	fisher14	1	10	1	0.1	104	coopera
14	fisher14	1	10	1	0.1	39	coopera
14	fisher14	1	10	1	0.1	45	coopera
14	fisher14	1	10	2	0.2	35.5	coopera
14	fisher14	1	10	3	0	45.66667	coopera
14	fisher14	1	10	19	1.9	42.8	coopera
14	fisher14	1	10	28	2.8	44.1	coopera
14	fisher14	1	10	1	0.1	38	coopera
14	fisher14	1	10	2	0.2	43	coopera
14	fisher14	1	10	1	0.1	NA	coopera
15	fisher15	3	6	12	2	41	coopera
15	fisher15	3	6	7	0.7	40	coopera
18	fisher18	NA	1	1	1	55	ncoope
20	fisher20	NA	1	1	1	39	ncoope
20	fisher20	NA	1	4	4	44	ncoope
21	fisher21	1	10	3	0.3	48	coopera
24	fisher24	5	2	4	2	42.5	coopera
24	fisher24	5	2	2	1	38	coopera
25	fisher25	NA	1	1	1	53	ncoope
25	fisher25	NA	1	1	1	50	ncoope
25	fisher25	NA	1	1	1	38	ncoope
25	fisher25	NA	1	2	2	38	ncoope
25	fisher25	NA	1	1	1	49	ncoope
25	fisher25	NA	1	1	1	50	ncoope
25	fisher25	NA	1	7	7	40.14286	ncoope
25	fisher25	NA	1	2	2	54.5	ncoope
27	fisher27	NA	1	1	1	35	ncoope
31	fisher31	4	3	1	0.3333333	39	coopera
31	fisher31	4	3	1	0.3333333	42	coopera
31	fisher31	4	3	1	0.3333333	61	coopera
32	fisher32	4	3	3	1	48	coopera
32	fisher32	4	3	3	1	44.33333	coopera
32	fisher32	4	3	20	6.6666667	34.4	coopera
32	fisher32	4	3	3	1	55	coopera
32	fisher32	4	3	12	4	48	coopera
32	fisher32	4	3	1	0.3333333	48	coopera
35	fisher35	1	10	38	3.8	44.3	coopera
35	fisher35	1	10	3	0	54.33333	coopera
36	fisher36	3	6	1	0.1666667	52	coopera
36	fisher36	3	6	1	0.1666667	60	coopera
36	fisher36	3	6	3	0.5	36	coopera
39	fisher39	2	3	1	0.3333333	38	coopera
39	fisher39	2	3	2	0.6666667	35.5	coopera
39	fisher39	2	3	1	0.3333333	30	coopera
39	fisher39	2	3	1	0.3333333	30	coopera
39	fisher39	2	3	1	0.3333333	46	coopera
41	fisher41	2	3	1	0.3333333	37	coopera
41	fisher41	2	3	1	0.3333333	30	coopera
41	fisher41	2	3	2	0.6666667	42	coopera
41	fisher41	2	3	1	0.3333333	41	coopera
41	fisher41	2	3	1	0.3333333	36	coopera
41	fisher41	2	3	1	0.3333333	38	coopera
41	fisher41	2	3	1	0.3333333	55	coopera
41	fisher41	2	3	4	1.3333333	47	coopera
41	fisher41	2	3	2	0.6666667	45.5	coopera
41	fisher41	2	3	5	1.6666667	47.8	coopera
41	fisher41	2	3	1	0.3333333	52	coopera
41	fisher41	2	3	1	0.3333333	38	coopera
41	fisher41	2	3	1	0.3333333	40	coopera
41	fisher41	2	3	1	0.3333333	37	coopera
41	fisher41	2	3	4	1.3333333	41.5	coopera
42	fisher42	NA	1	1	1	40	ncoope
42	fisher42	NA	1	1	1	40	ncoope
42	fisher42	NA	1	2	2	42.5	ncoope
44	fisher44	3	6	5	0.8333333	41.6	coopera
44	fisher44	3	6	2	0.3333333	51	coopera
44	fisher44	3	6	1	0.1666667	42	coopera
44	fisher44	3	6	4	0.6666667	42	coopera
44	fisher44	3	6	35	5.8333333	38.9	coopera
44	fisher44	3	6	34	5.6666667	46.3	coopera
45	fisher45	NA	1	1	1	36	ncoope
45	fisher45	NA	1	1	1	35	ncoope
45	fisher45	NA	1	1	1	52	ncoope
45	fisher45	NA	1	1	1	38	ncoope
45	fisher45	NA	1	1	1	37	ncoope
45	fisher45	NA	1	1	1	NA	ncoope
45	fisher45	NA	1	2	2	37.5	ncoope
45	fisher45	NA	1	1	1	47	ncoope
45	fisher45	NA	1	1	1	53	ncoope
45	fisher45	NA	1	1	1	40	ncoope
45	fisher45	NA	1	6	6	37.33333	ncoope
45	fisher45	NA	1	1	1	35	ncoope
45	fisher45	NA	1	2	2	36	ncoope
45	fisher45	NA	1	4	4	43.5	ncoope
45	fisher45	NA	1	11	11	51.8	ncoope
45	fisher45	NA	1	7	7	46.42857	ncoope
46	fisher46	4	3	8	2.6666667	40	coopera
46	fisher46	4	3	13	4.3333333	36.9	coopera
46	fisher46	4	3	1	0.3333333	60	coopera
46	fisher46	4	3	1	0.3333333	40	coopera
46	fisher46	4	3	1	0.3333333	50	coopera
46	fisher46	4	3	1	0.3333333	60	coopera
47	fisher47	3	6	2	0.3333333	35	coopera
47	fisher47	3	6	1	0.1666667	44	coopera